Final Project - Phase 1 – Nick Kent
…
Which restaurants in each location have the best/worst nutritional content? Which locations have the best/worst nutritional content? How does the category of the food affect it’s nutritional facts? How does meat contents affect nutritional content (present or not)?

Numerical summaries and visualizations

Numerical Summary(Count of restaurants in each data set)

# we will have to filter this whole data set so that we only get the restaurants that we want to use. 
fast_food_locations %>%  #first three pages of restaurants here are all in the 'menu_items' data set below
  group_by(name) %>% 
  summarize(count = n()) %>% 
  arrange(desc(count)) %>% 
  filter(count >= 42) 

# A tibble: 30 × 2
   name            count
   <chr>           <int>
 1 McDonald's       1898
 2 Taco Bell        1032
 3 Burger King       833
 4 Subway            776
 5 Arby's            663
 6 Wendy's           628
 7 Jack in the Box   330
 8 Pizza Hut         230
 9 Dairy Queen       218
10 Domino's Pizza    215
# ℹ 20 more rows

# might want to filter out the drinks, shareable items, etc. 
menu_stat %>%  
  group_by(restaurant) %>% 
  summarize(count = n()) %>% 
  arrange(desc(count))

# A tibble: 96 × 2
   restaurant         count
   <chr>              <int>
 1 Starbucks           4504
 2 Dunkin' Donuts      3707
 3 Wawa                2685
 4 Sheetz              2429
 5 Sonic               1605
 6 Jersey Mike's Subs  1594
 7 Golden Corral       1395
 8 Pizza Hut           1217
 9 Papa John's         1207
10 Firehouse Subs      1156
# ℹ 86 more rows
…
Numerical Summary(Number of fast food restaurants in each state)

fast_food_locations %>% 
  group_by(province) %>% 
  summarise(`Number Of FF restaurants in that state` = n()) %>% 
  arrange(desc(`Number Of FF restaurants in that state`))

# A tibble: 50 × 2
   province `Number Of FF restaurants in that state`
   <chr>                                       <int>
 1 CA                                           1201
 2 TX                                            811
 3 FL                                            621
 4 OH                                            522
 5 GA                                            420
 6 IL                                            405
 7 PA                                            383
 8 MI                                            374
 9 NY                                            352
10 AZ                                            330
# ℹ 40 more rows
…
